^C:\USERS\REV\DOWNLOADS\DS 20\3\MAIN.C
/c /ZI /nologo /W3 /WX- /Od /Oy- /D _MBCS /Gm /EHsc /RTC1 /MDd /GS /fp:precise /Zc:wchar_t /Zc:forScope /Fo"DEBUG\\" /Fd"DEBUG\VC120.PDB" /Gd /TC /analyze- C:\USERS\REV\DOWNLOADS\DS 20\3\MAIN.C
^C:\USERS\REV\DESKTOP\개인폴더\김민규\자료구조\DS 20\3\MAIN.C
/c /ZI /nologo /W3 /WX- /Od /Oy- /D _MBCS /Gm /EHsc /RTC1 /MDd /GS /fp:precise /Zc:wchar_t /Zc:forScope /Fo"DEBUG\\" /Fd"DEBUG\VC120.PDB" /Gd /TC /analyze- C:\USERS\REV\DESKTOP\개인폴더\김민규\자료구조\DS 20\3\MAIN.C
