^C:\USERS\REV\DESKTOP\개인폴더\김민규\자료구조\DS 20\3\DEBUG\MAIN.OBJ
C:\USERS\REV\DESKTOP\개인폴더\김민규\자료구조\DS 20\DEBUG\3.ILK
C:\USERS\REV\DESKTOP\개인폴더\김민규\자료구조\DS 20\DEBUG\3.EXE
C:\USERS\REV\DESKTOP\개인폴더\김민규\자료구조\DS 20\DEBUG\3.PDB
